tag,class
1940's feel,neutral
80's classic,conforme
Abigail Breslin,no-clasificado
action,no-clasificado
activist,no-clasificado
adam sandler,no-clasificado
adapted from:book,no-clasificado
addiction,no-clasificado
adventure,no-clasificado
afi,no-clasificado
aging,no-clasificado
Aging Disorder,no-clasificado
akira kurosawa,no-clasificado
alex pettyfer,no-clasificado
Alex van Warmerdam,no-clasificado
Alfred Hitchcock,no-clasificado
aliens,no-clasificado
alternate reality,no-clasificado
alternate universe,no-clasificado
Amanda Peet,no-clasificado
amazing storytelling,conforme
american idiocy,no-clasificado
Ang Lee,no-clasificado
animation,no-clasificado
animation style,no-clasificado
anime,no-clasificado
anti-hero,no-clasificado
apocalypse,no-clasificado
artificial intelligence,no-clasificado
As historicaly correct as Germany winning WW2,inconforme
assassin,no-clasificado
atmospheric,no-clasificado
author:Neil Gaiman,no-clasificado
aviation,no-clasificado
awesome,conforme
awesome soundtrack,conforme
awkward,inconforme
b movie,no-clasificado
bad acting,inconforme
bad camerawork,inconforme
bad plot,inconforme
baseball,no-clasificado
based on a book,no-clasificado
based on a true story,no-clasificado
based on a TV show,no-clasificado
Batman,no-clasificado
BDSM,no-clasificado
beautiful scenery,conforme
Beautiful Woman,conforme
beautifully filmed,conforme
beauty pageant,no-clasificado
beer,no-clasificado
Benicio Del Toro,no-clasificado
biblical,no-clasificado
big brother,no-clasificado
Bill Murray,no-clasificado
Billy Bob Thornton,no-clasificado
billy bob thorton,no-clasificado
bkk,no-clasificado
black comedy,no-clasificado
Blindfold,no-clasificado
bollywood,no-clasificado
Bondage,no-clasificado
books,no-clasificado
bookshop,no-clasificado
boring,inconforme
Brad Pitt,no-clasificado
breathtaking,conforme
British,no-clasificado
brother sister relationship,no-clasificado
but still a fun movie.,conforme
Cambodia,no-clasificado
campy,no-clasificado
can't stand rogue!,inconforme
Captain Hammer,no-clasificado
character development,no-clasificado
cheerleading,no-clasificado
cheezy to the max!,inconforme
childish plot,inconforme
children,no-clasificado
CHRISTIAN,no-clasificado
christmas,no-clasificado
Christopher Nolan,no-clasificado
cinematography,no-clasificado
claire daines,no-clasificado
classic,no-clasificado
classic sci-fi,no-clasificado
claustrophobic,inconforme
claymation,no-clasificado
clever,conforme
cocaine,no-clasificado
coen brothers,no-clasificado
Cole Hauser,no-clasificado
colin firth,no-clasificado
collin farrel,no-clasificado
comedt,no-clasificado
comedy,no-clasificado
comedy of manners,no-clasificado
coming of age,no-clasificado
complicated,neutral
controversial,neutral
cooking,no-clasificado
cool,conforme
cool and great music,conforme
covers a lifespan,no-clasificado
creative,no-clasificado
creepy good,conforme
crime,no-clasificado
critically acclaimed,conforme
crude,no-clasificado
crude humor,no-clasificado
cult classic,no-clasificado
cult film,no-clasificado
cursing,no-clasificado
cute,conforme
Dakota Fanning,no-clasificado
dance,no-clasificado
dark,no-clasificado
dark comedy,no-clasificado
dark humor,no-clasificado
Dave Foley,no-clasificado
demons,no-clasificado
dentist,no-clasificado
denzel washington,no-clasificado
depressing,inconforme
desert,no-clasificado
determination,no-clasificado
devotion,no-clasificado
didn't get it,neutral
Dieselpunk,no-clasificado
diluted version of comic,inconforme
directorial debut,no-clasificado
disappointing,inconforme
Disney,no-clasificado
Disney studios,no-clasificado
disturbing,inconforme
documentary,no-clasificado
Domination,no-clasificado
drama,no-clasificado
Drugs,no-clasificado
dull story,inconforme
dumb,inconforme
dvd,no-clasificado
dystopia,no-clasificado
easily confused with other movie(s) (title),neutral
eastern europe,no-clasificado
edward norton,no-clasificado
eerie,no-clasificado
Ei muista,no-clasificado
elegant,conforme
Eliza Dushku,no-clasificado
Emilio Estevez,no-clasificado
emotional,no-clasificado
ending,no-clasificado
ensemble cast,no-clasificado
ethan hawke,no-clasificado
europe,no-clasificado
Exellent first half,conforme
existentialism,no-clasificado
experiment,no-clasificado
explosions,no-clasificado
fairy tale,no-clasificado
fairy tales,no-clasificado
fairytale,no-clasificado
family,no-clasificado
fantasy,no-clasificado
fantasy world,no-clasificado
fashion,no-clasificado
feel good,conforme
feel-good,conforme
feminist,no-clasificado
femme-fatale,no-clasificado
Fernando E. Solanas,no-clasificado
Fetish,no-clasificado
Firefly,no-clasificado
food,no-clasificado
football,no-clasificado
forgettable,no-clasificado
found footage,no-clasificado
franchise,no-clasificado
freedom,no-clasificado
friends,no-clasificado
friendship,no-clasificado
funny,conforme
Gag,no-clasificado
gay,no-clasificado
genius,conforme
genuine characters,conforme
George Lucas,no-clasificado
getdvd,no-clasificado
Gilliam,no-clasificado
girlie movie,no-clasificado
good animation,conforme
good but not accurate,neutral
good science,conforme
Gore!!!,no-clasificado
graphic design,no-clasificado
gratuitous violence,no-clasificado
great dialogue,conforme
great soundtrack,conforme
greed,no-clasificado
gritty,no-clasificado
group psychology,no-clasificado
Guillermo del Toro,no-clasificado
guy movie,no-clasificado
Guy Ritchie,no-clasificado
Gwenth Paltrow,no-clasificado
Gwyneth Paltrow,no-clasificado
hallucinatory,no-clasificado
happiness,no-clasificado
happy ending,no-clasificado
Harrison Ford,no-clasificado
Hayao Miyazaki,no-clasificado
hdtv,no-clasificado
heartwarming,conforme
Helen Hunt,no-clasificado
high school,no-clasificado
hijacking,no-clasificado
hilarious,conforme
hillarious,conforme
historical,no-clasificado
hit men,no-clasificado
holes00s,no-clasificado
holes40s,no-clasificado
holes60s,no-clasificado
holes70s,no-clasificado
holes80s,no-clasificado
holes90s,no-clasificado
honest,no-clasificado
horror,no-clasificado
hugh grant,no-clasificado
Hugh Jackman,no-clasificado
humor,no-clasificado
I loved it! Seen it five times already!,conforme
Iceland,no-clasificado
i'd like to live in this movie,conforme
il,no-clasificado
imaginary world, characters, story, philosophical,no-clasificado
imagination,no-clasificado
imaginative,conforme
independent film,no-clasificado
India,no-clasificado
indie,no-clasificado
insanity,no-clasificado
inspiring,conforme
intellectual,no-clasificado
intelligent,no-clasificado
intense,no-clasificado
interesting,conforme
interesting concept - bad execution,inconforme
interesting ideea,conforme
Intrigued,conforme
Irene Jacob,no-clasificado
irreverent,no-clasificado
Jack Black,no-clasificado
jack nicholson,no-clasificado
jakie chan,no-clasificado
japanese influence,no-clasificado
Jason Patric,no-clasificado
jedi,no-clasificado
Jeff Bridges,no-clasificado
jesus,no-clasificado
Jim carrey,no-clasificado
jimmy stewart,no-clasificado
jodi foster,no-clasificado
John Cleese,no-clasificado
john cusack,no-clasificado
Johnny Depp,no-clasificado
Johnny Depp***,no-clasificado
joseph fiennes,no-clasificado
joss whedon,no-clasificado
Jude Law,no-clasificado
Julie Andrews,no-clasificado
Just stupid,inconforme
Katso Sanna!,no-clasificado
keanu reeves,no-clasificado
Keira Knightley,no-clasificado
Kevin Costner,no-clasificado
Kristen Stewart,no-clasificado
Krzysztof Kieslowski,no-clasificado
kung fu,no-clasificado
lake forest,no-clasificado
Lame everything,inconforme
Leonardo DiCaprio,no-clasificado
light,no-clasificado
liked the other two better,inconforme
long,neutral
love,no-clasificado
low-budget,no-clasificado
lyrical,no-clasificado
mad scientist,no-clasificado
magic,no-clasificado
magical realism,no-clasificado
Mark Wahlberg,no-clasificado
martial arts,no-clasificado
Martin Scorsese,no-clasificado
Marx Brothers,no-clasificado
math,no-clasificado
mathematics,no-clasificado
Matthew Perry,no-clasificado
meaning of life,no-clasificado
Meg Ryan,no-clasificado
Mel Gibson,no-clasificado
memories,no-clasificado
meryl streep,no-clasificado
Michael Mann,no-clasificado
Micheal Keaton,no-clasificado
mike myers,no-clasificado
military,no-clasificado
Mindfuck,neutral
Monty Python,no-clasificado
moody,no-clasificado
moore,no-clasificado
Morgan Freeman,no-clasificado
Mossad,no-clasificado
multiple roles,no-clasificado
multiple storylines,no-clasificado
music,no-clasificado
musical,no-clasificado
musical parodies,no-clasificado
must see,conforme
nair,no-clasificado
narrated,no-clasificado
nascar,no-clasificado
Nathan Fillion,no-clasificado
National Film Registry,no-clasificado
Neil Gaiman,no-clasificado
Neil Patrick Harris,no-clasificado
nerds,no-clasificado
nerdy,no-clasificado
New York,no-clasificado
New York City,no-clasificado
Nicolas Cage,no-clasificado
no desire to see this,inconforme
No progress,inconforme
nonlinear,no-clasificado
not by book,no-clasificado
not only for kids,no-clasificado
not too thrilled,inconforme
not worth your time,inconforme
notable nudity,no-clasificado
notable soundtrack,no-clasificado
Nudity (Full Frontal - Notable),no-clasificado
Nudity (Full Frontal),no-clasificado
Nudity (Rear),no-clasificado
Nudity (Topless - Notable),no-clasificado
Nudity (Topless),no-clasificado
obvious plot,inconforme
ocean,no-clasificado
Oded Fehr,no-clasificado
off-beat comedy,no-clasificado
okay,neutral
on the run,no-clasificado
organized crime,no-clasificado
original plot,conforme
Orlando Bloom,no-clasificado
Overrated,inconforme
paranoid,no-clasificado
Paris,no-clasificado
parody,no-clasificado
Phenomenal!,conforme
philosophical,no-clasificado
philosophical issues,no-clasificado
philosophy,no-clasificado
photography,no-clasificado
physics,no-clasificado
pirates,no-clasificado
pixar,no-clasificado
play enough video games and you can become an NSA agent,neutral
plot holes,inconforme
politics,no-clasificado
porn,no-clasificado
possession,no-clasificado
Post apocalyptic,no-clasificado
post-apocalyptic,no-clasificado
powerpoint,no-clasificado
Predictable,inconforme
pregnancy,no-clasificado
prison,no-clasificado
prison escape,no-clasificado
privacy,no-clasificado
psychological,no-clasificado
psychological thriller,no-clasificado
psychology,no-clasificado
Quentin Tarantino,no-clasificado
Quirky,no-clasificado
r. phoneix,no-clasificado
R:strong sexual content,no-clasificado
r:violence,no-clasificado
racism,no-clasificado
Ralph Fiennes,no-clasificado
redemption,no-clasificado
relationships,no-clasificado
relativity,no-clasificado
renee z,no-clasificado
renegade art,no-clasificado
revenge,no-clasificado
rich families,no-clasificado
ridiculous training sequence,inconforme
road trip,no-clasificado
Robert Pattinson,no-clasificado
robots,no-clasificado
Rock,no-clasificado
rock and roll,no-clasificado
Roman Polanski,no-clasificado
romance,no-clasificado
romantic,no-clasificado
romantic comedy,no-clasificado
Ron Howard,no-clasificado
Rosanna Arquette,no-clasificado
Russian,no-clasificado
sad,no-clasificado
sandra 'boring' bullock,inconforme
Sandra Bullock,no-clasificado
satire,no-clasificado
satirical,no-clasificado
Satoshi Kon,no-clasificado
scary,neutral
school,no-clasificado
sci fi,no-clasificado
Science Fiction,no-clasificado
sci-fi,no-clasificado
script,no-clasificado
seen it before,neutral
self discovery,no-clasificado
sentimental,no-clasificado
sequel,no-clasificado
serial killer,no-clasificado
series,no-clasificado
sex,no-clasificado
sexist,no-clasificado
sexy food,no-clasificado
shakespeare,no-clasificado
short,no-clasificado
siblings,no-clasificado
Sienna Guillory,no-clasificado
sightsound,no-clasificado
slow,inconforme
slow parts,inconforme
snorefest,inconforme
social commentary,no-clasificado
social criticism,no-clasificado
sort of honest,no-clasificado
space,no-clasificado
space adventure,no-clasificado
space epic, science fiction, hero's journey,no-clasificado
Spanked,no-clasificado
spock,no-clasificado
stallone,no-clasificado
standard romantic comedy,no-clasificado
Stanley Kubrick,no-clasificado
star,no-clasificado
Star Trek,no-clasificado
Star Wars,no-clasificado
starship pilots,no-clasificado
starwars,no-clasificado
steampunk,no-clasificado
Stephen Chow,no-clasificado
stereotypes,no-clasificado
Steve Buscemi,no-clasificado
steve carell,no-clasificado
Steve Martin,no-clasificado
storyline,no-clasificado
Streep strong & funny,conforme
strippers,no-clasificado
strong female presence,no-clasificado
Studio Ghibli,no-clasificado
stupid,inconforme
stupidity,no-clasificado
stylized,no-clasificado
Submission,no-clasificado
sufficiently explodey to be good,conforme
superhero,no-clasificado
super-hero,no-clasificado
supernatural powers,no-clasificado
surreal,no-clasificado
surrealism,no-clasificado
survival horror,no-clasificado
suspense,no-clasificado
sweet,conforme
sword fight,no-clasificado
Syfy,no-clasificado
Takashi Miike,no-clasificado
tarantino,no-clasificado
tcm,no-clasificado
technology,no-clasificado
Teen movie,no-clasificado
teen pregnancy,no-clasificado
teenagers,no-clasificado
teleportation,no-clasificado
terrible ending,inconforme
that fat nerd is just annoying,inconforme
the best comic adaptation!,conforme
The Rocks "finest" work need I say more?,conforme
thora birch,no-clasificado
thought-provoking,conforme
thriller,no-clasificado
Tied,no-clasificado
Tim Robbins,no-clasificado
time travel,no-clasificado
time-travel,no-clasificado
tivo,no-clasificado
tobey maguire,no-clasificado
Tom Cruise,no-clasificado
Tom Hanks,no-clasificado
too long,inconforme
Too slow,inconforme
toplist05,no-clasificado
toplist06,no-clasificado
toplist07,no-clasificado
toplist08,no-clasificado
toplist09,no-clasificado
toplist10,no-clasificado
toplist11,no-clasificado
toplist12,no-clasificado
toplist13,no-clasificado
toplist14,no-clasificado
toplist15,no-clasificado
toplist16,no-clasificado
tosee,conforme
touching,conforme
tragedy,no-clasificado
travel,no-clasificado
Trilogy of the Imagination,no-clasificado
true story,no-clasificado
Try not to mistake this for an episode of Alias,no-clasificado
twist ending,no-clasificado
Udo Kier,no-clasificado
uganda,no-clasificado
unique look,conforme
unusual plot structure,conforme
vampire,no-clasificado
Vampire Human Love,no-clasificado
vampires,no-clasificado
vengeance,no-clasificado
very funny!,conforme
video game adaptation,no-clasificado
Views,no-clasificado
Viggo Mortensen,no-clasificado
vigilantism,no-clasificado
villain nonexistent or not needed for good story,conforme
Vin Diesel,no-clasificado
violence,no-clasificado
violent,no-clasificado
virtual reality,no-clasificado
visceral,no-clasificado
visually appealing,conforme
war,no-clasificado
weird,no-clasificado
well done,conforme
whimsical,conforme
who done it,no-clasificado
Why the terrorists hate us,inconforme
will farell,no-clasificado
witty,conforme
witty!,conforme
World War II,no-clasificado
wrongful imprisonment,no-clasificado
zombies,no-clasificado
Zooey Deschanel,no-clasificado
